<?xml version="1.0" encoding="utf-8"?>
<!-- Generator: Adobe Illustrator 21.0.2, SVG Export Plug-In . SVG Version: 6.00 Build 0)  -->
<svg version="1.1" id="Layer_1" xmlns="http://www.w3.org/2000/svg" xmlns:xlink="http://www.w3.org/1999/xlink" x="0px" y="0px"
	 viewBox="0 0 23 22.8" style="enable-background:new 0 0 23 22.8;" xml:space="preserve">
<style type="text/css">
	.st0{fill:#F0F0F0;stroke:#B3B3B3;stroke-miterlimit:10;}
	.st1{fill:none;stroke:#0B4EA2;stroke-width:3;stroke-miterlimit:10;}
</style>
<g>
	<rect x="0.5" y="0.5" class="st0" width="22" height="21.8"/>
	<polyline class="st1" points="11.4,0.9 11.4,11.5 1,11.5 	"/>
</g>
</svg>
