<?xml version="1.0" encoding="utf-8"?>
<!-- Generator: Adobe Illustrator 21.0.2, SVG Export Plug-In . SVG Version: 6.00 Build 0)  -->
<svg version="1.1" id="Layer_1" xmlns="http://www.w3.org/2000/svg" xmlns:xlink="http://www.w3.org/1999/xlink" x="0px" y="0px"
	 viewBox="0 0 24.3 24.3" style="enable-background:new 0 0 24.3 24.3;" xml:space="preserve">
<style type="text/css">
	.st0{fill:#FFFFFF;}
</style>
<g>
	<g>
		<g>
			<ellipse transform="matrix(0.6719 -0.7406 0.7406 0.6719 -8.7089 13.2157)" class="st0" cx="10.6" cy="16.4" rx="2.2" ry="2.2"/>
			<polygon class="st0" points="8.9,14.9 19,7.2 12.3,17.8 			"/>
		</g>
		<g>
			<g>
				<path class="st0" d="M12.1,23.9c-6.5,0-11.8-5.3-11.8-11.8c0-0.2,0.2-0.4,0.4-0.4s0.4,0.2,0.4,0.4c0,6,4.9,10.9,10.9,10.9
					S23,18.1,23,12.1c0-5.8-4.6-10.6-10.4-10.9l0.2,5.3c0,0.2-0.2,0.4-0.4,0.5c-0.2,0-0.4-0.2-0.5-0.4l-0.2-6.2l0.5,0
					c6.4,0,11.7,5.3,11.7,11.8C23.9,18.6,18.6,23.9,12.1,23.9z"/>
				<path class="st0" d="M12.1,24.3C5.4,24.3,0,18.8,0,12.1c0-0.4,0.4-0.8,0.8-0.8s0.8,0.4,0.8,0.8c0,5.8,4.7,10.5,10.5,10.5
					s10.5-4.7,10.5-10.5c0-5.5-4.2-10.1-9.7-10.5l0.2,4.9c0,0.4-0.3,0.8-0.8,0.8c-0.4,0-0.8-0.3-0.8-0.8L11.3,0l0.9,0
					c6.6,0.1,12,5.5,12,12.1C24.3,18.8,18.8,24.3,12.1,24.3z M0.8,12C0.7,12,0.7,12.1,0.8,12c-0.1,6.4,5,11.5,11.3,11.5
					c6.3,0,11.4-5.1,11.4-11.4c0-6.3-5.1-11.4-11.3-11.4l-0.2,0l0.2,5.8c0,0.1,0.1,0.1,0.1,0.1c0,0,0.1-0.1,0.1-0.1l-0.2-5.7l0.4,0
					c6,0.3,10.8,5.2,10.8,11.2c0,6.2-5,11.2-11.2,11.2S0.9,18.3,0.8,12C0.9,12.1,0.8,12,0.8,12z"/>
			</g>
		</g>
	</g>
</g>
</svg>
